---
http_interactions:
- request:
    method: post
    uri: https://api.flickr.com/services/rest/
    body:
      encoding: US-ASCII
      string: user_id=45646189%40N06&per_page=12&method=flickr.people.getPhotos&format=json&nojsoncallback=1
    headers:
      Accept-Encoding:
      - gzip;q=1.0,deflate;q=0.6,identity;q=0.3
      Accept:
      - "*/*"
      User-Agent:
      - FlickRaw/0.9.8
      Authorization:
      - OAuth realm="https://api.flickr.com/services/rest/", oauth_consumer_key="0f3a24c9d16095734cebf6b5e8753f15",
        oauth_nonce="Ci8%2BzpQCeq%2ByNBZtrT3bdl57BpPhgNrMwNY4Udxf8qA%3D", oauth_signature="e91fce5ff67d9678%26",
        oauth_signature_method="PLAINTEXT", oauth_timestamp="1450319901", oauth_token="",
        oauth_version="1.0"
      Content-Type:
      - application/x-www-form-urlencoded
  response:
    status:
      code: 200
      message: OK
    headers:
      Date:
      - Thu, 17 Dec 2015 02:38:24 GMT
      Content-Type:
      - application/json
      Content-Length:
      - '409'
      P3p:
      - policyref="https://policies.yahoo.com/w3c/p3p.xml", CP="CAO DSP COR CUR ADM
        DEV TAI PSA PSD IVAi IVDi CONi TELo OTPi OUR DELi SAMi OTRi UNRi PUBi IND
        PHY ONL UNI PUR FIN COM NAV INT DEM CNT STA POL HEA PRE LOC GOV"
      Cache-Control:
      - private
      X-Served-By:
      - www-bm021.flickr.bf1.yahoo.com
      Vary:
      - Accept-Encoding
      Age:
      - '2'
      Via:
      - http/1.1 fts101.flickr.bf1.yahoo.com (ApacheTrafficServer [cMsSf ]), http/1.1
        r29.ycpi.ne1.yahoo.net (ApacheTrafficServer [cMsSf ])
      Server:
      - ATS
      Connection:
      - keep-alive
      Y-Trace:
      - BAEAQAAAAACpom6WXHRJEQAAAAAAAAAAbhWw55tpMSoAAAAAAAAAAAAFJw7qq.WqAAUnDuqxuxIfO.yQAAAAAA--
    body:
      encoding: ASCII-8BIT
      string: '{"photos":{"page":1,"pages":32,"perpage":12,"total":"373","photo":[{"id":"17362809323","owner":"45646189@N06","secret":"2eb0de3016","server":"7727","farm":8,"title":"","ispublic":1,"isfriend":0,"isfamily":0},{"id":"17956891336","owner":"45646189@N06","secret":"885450e9c7","server":"7703","farm":8,"title":"","ispublic":1,"isfriend":0,"isfamily":0},{"id":"17956890516","owner":"45646189@N06","secret":"d21e6d5ffe","server":"8870","farm":9,"title":"","ispublic":1,"isfriend":0,"isfamily":0},{"id":"17983325485","owner":"45646189@N06","secret":"c48afe2980","server":"8893","farm":9,"title":"","ispublic":1,"isfriend":0,"isfamily":0},{"id":"17980166842","owner":"45646189@N06","secret":"944244b77e","server":"5444","farm":6,"title":"","ispublic":1,"isfriend":0,"isfamily":0},{"id":"17362803773","owner":"45646189@N06","secret":"383beded84","server":"7725","farm":8,"title":"","ispublic":1,"isfriend":0,"isfamily":0},{"id":"17544119775","owner":"45646189@N06","secret":"d5fefa7a56","server":"7668","farm":8,"title":"","ispublic":1,"isfriend":0,"isfamily":0},{"id":"17517039376","owner":"45646189@N06","secret":"1cd566f756","server":"8841","farm":9,"title":"","ispublic":1,"isfriend":0,"isfamily":0},{"id":"17541121972","owner":"45646189@N06","secret":"2f3fb50005","server":"8827","farm":9,"title":"","ispublic":1,"isfriend":0,"isfamily":0},{"id":"16923048363","owner":"45646189@N06","secret":"cfd22d1cb1","server":"7738","farm":8,"title":"","ispublic":1,"isfriend":0,"isfamily":0},{"id":"17498398486","owner":"45646189@N06","secret":"5d8ae38ffc","server":"7731","farm":8,"title":"","ispublic":1,"isfriend":0,"isfamily":0},{"id":"17522578732","owner":"45646189@N06","secret":"6228189ba8","server":"8712","farm":9,"title":"","ispublic":1,"isfriend":0,"isfamily":0}]},"stat":"ok"}'
    http_version: 
  recorded_at: Thu, 17 Dec 2015 02:38:23 GMT
recorded_with: VCR 3.0.0
